<svg width="16" height="16" viewBox="0 0 16 16" fill="none" xmlns="http://www.w3.org/2000/svg">
<path fill-rule="evenodd" clip-rule="evenodd" d="M12.9524 6.50435C12.9524 4.13217 11.3524 2.21913 9.14286 1.68348V1.14783C9.14286 0.535652 8.60952 0 8 0C7.39048 0 6.85714 0.535652 6.85714 1.14783V1.68348C4.64762 2.21913 3.04762 4.13217 3.04762 6.50435V10.713L1.52381 12.2435V13.0087H14.4762V12.2435L12.9524 10.713V6.50435ZM3.2 0.153043L4.26667 1.22435C2.66667 2.29565 1.67619 4.05565 1.52381 6.12174H0C0.152381 3.67304 1.37143 1.53043 3.2 0.153043ZM16 6.12174H14.4762C14.3238 4.05565 13.3333 2.29565 11.8095 1.22435L12.8762 0.153043C14.7048 1.53043 15.8476 3.67304 16 6.12174ZM8.30476 15.3043H8C7.1619 15.3043 6.47619 14.6157 6.47619 13.7739H9.52381C9.52381 14.0035 9.44762 14.233 9.37143 14.3861C9.21905 14.8452 8.8381 15.2278 8.30476 15.3043Z" fill="#5C281A"/>
</svg>
