<svg xmlns="http://www.w3.org/2000/svg" width="64" height="64" viewBox="0 0 64 64">
    <g fill="none" fill-rule="evenodd" transform="translate(0 .314)">
        <path fill="#34495E" fill-rule="nonzero" d="M28.28 11.351C14.891 11.351 4 22.154 4 35.432c0 13.28 10.892 24.083 24.28 24.083 13.386 0 24.277-10.804 24.277-24.083 0-4.009-.998-7.788-2.752-11.117h-4.3a20.187 20.187 0 0 1 3.317 11.117c0 11.277-9.174 20.376-20.543 20.376-11.368 0-20.542-9.1-20.542-20.376 0-11.276 9.174-20.376 20.542-20.376 4.14 0 7.987 1.213 11.208 3.293V14.08a24.279 24.279 0 0 0-11.208-2.73z"/>
        <path fill="#34495E" fill-rule="nonzero" d="M28.28 18.763c-9.262 0-16.808 7.483-16.808 16.67 0 9.186 7.546 16.67 16.807 16.67 9.262 0 16.806-7.484 16.806-16.67 0-3.254-.96-6.285-2.594-8.854l-2.703 2.679c1 1.834 1.569 3.936 1.569 6.174 0 7.184-5.835 12.964-13.078 12.964-7.242 0-13.07-5.78-13.07-12.964s5.828-12.97 13.07-12.97c2.257 0 4.376.564 6.225 1.555l2.701-2.681a16.775 16.775 0 0 0-8.926-2.573z"/>
        <ellipse cx="28.132" cy="35.017" fill="#FACA30" fill-rule="nonzero" rx="9" ry="8.862"/>
        <path fill="#34495E" fill-rule="nonzero" d="M28.28 26.168c-5.136 0-9.342 4.17-9.342 9.264 0 5.094 4.206 9.267 9.341 9.267 5.136 0 9.076-4.057 9.076-9.15 0-1.19-.277-2.326-.695-3.374l-3.057 3.068c.006.102.017.202.017.306 0 3.091-2.224 5.443-5.34 5.443-3.117 0-5.605-2.468-5.605-5.56 0-3.091 2.488-5.557 5.604-5.557.104 0 .205.009.307.014l3.095-3.072a9.3 9.3 0 0 0-3.402-.65z"/>
        <path fill="#FACA30" d="M50.645 5.73l1.028 6.633 6.784.8-7.812 7.432-6.513-.348-.402-6.905z"/>
        <path fill="#34495E" fill-rule="nonzero" d="M50.635 3.94a1.875 1.875 0 0 0-1.262.538L41.9 11.89c-.35.35-.545.822-.543 1.314v6.637l-14.402 14.28a1.843 1.843 0 0 0 .036 2.59 1.88 1.88 0 0 0 2.61.028l14.395-14.276h6.693c.497.001.973-.193 1.324-.541l7.473-7.412c.532-.53.69-1.327.4-2.017a1.868 1.868 0 0 0-1.724-1.142h-5.605v-5.56c0-.5-.204-.98-.566-1.329a1.876 1.876 0 0 0-1.356-.523zm-1.813 6.331v2.933a1.86 1.86 0 0 0 1.867 1.852h2.957l-3.728 3.707h-4.833V13.97l3.737-3.698z"/>
    </g>
</svg>
