<svg width="17" height="16" viewBox="0 0 17 16" fill="none" xmlns="http://www.w3.org/2000/svg">
<path fill-rule="evenodd" clip-rule="evenodd" d="M16.6765 3.43856L12.9725 0.449219L11.9258 1.59896L15.6297 4.5883L16.6765 3.43856ZM5.3249 1.67514L4.27814 0.525391L0.574219 3.43808L1.62098 4.58783L5.3249 1.67514ZM7.82422 5.20117H9.03202V9.26361L12.2528 11.1032L11.6087 12.023L7.82422 9.80015V5.20117ZM8.6257 2.13574C4.5997 2.13574 1.37891 5.20173 1.37891 9.03422C1.37891 12.8667 4.5997 15.9327 8.6257 15.9327C12.6517 15.9327 15.8725 12.8667 15.8725 9.03422C15.8725 5.20173 12.6517 2.13574 8.6257 2.13574ZM2.98904 9.03442C2.98904 12.0238 5.48516 14.3999 8.62544 14.3999C11.7657 14.3999 14.2618 12.0238 14.2618 9.03442C14.2618 6.04509 11.7657 3.66895 8.62544 3.66895C5.48516 3.66895 2.98904 6.04509 2.98904 9.03442Z" fill="#2A292A"/>
</svg>
