<svg xmlns="http://www.w3.org/2000/svg" width="90" height="90" viewBox="0 0 90 90">
    <g fill="none" fill-rule="evenodd">
        <path fill="#FACA30" d="M19.75 33.75h38.5V65h-38.5z"/>
        <g fill="#34495E" fill-rule="nonzero" stroke="#34495E" stroke-width=".625">
            <path d="M61.134 24.764H31.178L51.7 12.916a1.369 1.369 0 0 1 1.867.501l4.63 8.02a1.367 1.367 0 0 0 2.369-1.367l-4.63-8.02a4.106 4.106 0 0 0-5.604-1.501L25.74 24.748c-.01.005-.017.011-.026.017H14.102A4.106 4.106 0 0 0 10 28.866v47.032A4.106 4.106 0 0 0 14.102 80h47.032a4.106 4.106 0 0 0 4.101-4.102V28.866a4.106 4.106 0 0 0-4.101-4.102zM62.5 75.898c0 .754-.613 1.367-1.367 1.367H14.102a1.369 1.369 0 0 1-1.367-1.367V28.866c0-.754.613-1.367 1.367-1.367h47.032c.754 0 1.367.613 1.367 1.367v47.032zM71.155 38.506a1.378 1.378 0 0 0-.966-.4c-.36 0-.713.146-.967.4-.254.255-.4.607-.4.967s.146.712.4.967c.254.254.607.4.967.4s.712-.146.966-.4c.255-.255.4-.607.4-.967s-.145-.712-.4-.967zM79.451 52.78l-5.657-9.797a1.367 1.367 0 0 0-2.367 1.367l5.656 9.798c.377.653.153 1.49-.5 1.868l-8.793 5.076a1.367 1.367 0 1 0 1.368 2.368l8.792-5.076a4.106 4.106 0 0 0 1.501-5.603z"/>
            <path d="M45.967 31.728a1.377 1.377 0 0 0-.966-.401c-.36 0-.713.146-.967.4-.254.255-.4.608-.4.967 0 .36.146.713.4.967.255.254.607.4.967.4s.712-.146.966-.4.4-.607.4-.967-.145-.712-.4-.966z"/>
            <path d="M57.306 31.327h-5.333a1.367 1.367 0 0 0 0 2.734h3.965v19.493L45.084 42.7a1.368 1.368 0 0 0-1.934 0l-7.243 7.243a1.367 1.367 0 0 0 1.934 1.933l6.276-6.276L55.93 57.41l.01.01v6.72H21.23l9.925-9.926 7.373 7.373a1.367 1.367 0 0 0 1.934-1.934l-8.34-8.34a1.368 1.368 0 0 0-1.933 0L19.297 62.207V34.06h18.32a1.367 1.367 0 0 0 0-2.734H17.93c-.755 0-1.367.612-1.367 1.367v32.813c0 .755.612 1.367 1.367 1.367h39.376c.754 0 1.367-.612 1.367-1.367V32.694c0-.755-.613-1.367-1.367-1.367z"/>
            <path d="M29.916 37.206a4.38 4.38 0 0 0-4.375 4.375 4.38 4.38 0 0 0 4.375 4.375 4.38 4.38 0 0 0 4.375-4.375 4.38 4.38 0 0 0-4.375-4.375zm0 6.016c-.905 0-1.64-.736-1.64-1.64 0-.906.735-1.642 1.64-1.642.904 0 1.64.737 1.64 1.641 0 .905-.736 1.64-1.64 1.64z"/>
        </g>
    </g>
</svg>
