<svg xmlns="http://www.w3.org/2000/svg" width="21" height="21" viewBox="0 0 21 21">
    <path fill="#66332B" fill-rule="evenodd" d="M10.967.967c-5.5 0-10 4.5-10 10s4.5 10 10 10 10-4.5 10-10-4.5-10-10-10zm5 13.6l-1.4 1.4-3.6-3.6-3.6 3.6-1.4-1.4 3.6-3.6-3.6-3.6 1.4-1.4 3.6 3.6 3.6-3.6 1.4 1.4-3.6 3.6 3.6 3.6z"/>
</svg>
