<svg xmlns="http://www.w3.org/2000/svg" width="356" height="122" viewBox="0 0 356 122">
    <g fill="none" fill-rule="evenodd">
        <path fill="#FFF" stroke="#EAEAEA" d="M4 .5A3.5 3.5 0 0 0 .5 4v114a3.5 3.5 0 0 0 3.5 3.5h348a3.5 3.5 0 0 0 3.5-3.5V4A3.5 3.5 0 0 0 352 .5H4z"/>
        <text fill="#2A292A" font-family="HelveticaNeue, Helvetica Neue" font-size="14">
            <tspan x="36" y="25">Attachment</tspan>
        </text>
        <path fill="#FFF" stroke="#ACB6C1" d="M40 36.5a3.5 3.5 0 0 0-3.5 3.5v36a3.5 3.5 0 0 0 3.5 3.5h277a3.5 3.5 0 0 0 3.5-3.5V40a3.5 3.5 0 0 0-3.5-3.5H40z"/>
        <text fill="#D50000" font-family="HelveticaNeue, Helvetica Neue" font-size="14">
            <tspan x="35" y="103">File type not supported</tspan>
        </text>
        <text fill="#34495E" font-family="HelveticaNeue-Medium, Helvetica Neue" font-size="14" font-weight="400">
            <tspan x="78" y="62">UPLOAD IMAGE OR DROP IMAGE</tspan>
        </text>
        <path fill="#34495E" fill-rule="nonzero" d="M68.758 55.804a.492.492 0 0 0-.494.494v4.497a2.218 2.218 0 0 1-2.215 2.215H55.204a2.218 2.218 0 0 1-2.215-2.215v-4.57a.492.492 0 0 0-.495-.494.492.492 0 0 0-.494.494v4.57a3.207 3.207 0 0 0 3.204 3.203h10.845a3.207 3.207 0 0 0 3.203-3.203v-4.497c0-.27-.22-.494-.494-.494z"/>
        <path fill="#34495E" fill-rule="nonzero" d="M57.832 51.996l2.3-2.299v10.028c0 .275.22.495.494.495.275 0 .494-.22.494-.495V49.697l2.3 2.3a.497.497 0 0 0 .348.146.476.476 0 0 0 .347-.147.493.493 0 0 0 0-.699l-3.141-3.141a.5.5 0 0 0-.348-.147.479.479 0 0 0-.348.147l-3.141 3.141a.493.493 0 1 0 .695.7z"/>
    </g>
</svg>
