<svg xmlns="http://www.w3.org/2000/svg" xmlns:xlink="http://www.w3.org/1999/xlink" width="607" height="487" viewBox="0 0 607 487">
    <defs>
        <path id="a" d="M4 0h597a4 4 0 0 1 4 4v50H0V4a4 4 0 0 1 4-4z"/>
        <path id="c" d="M0 54h605v60H0z"/>
        <path id="d" d="M5.998 6.943L2.943 9.998 0 7.055l5.998-.112zM3.045 0L5.98 2.934 0 3.045 3.045 0z"/>
        <path id="f" d="M5.998 6.943L2.943 9.998 0 7.055l5.998-.112zM3.045 0L5.98 2.934 0 3.045 3.045 0z"/>
        <path id="i" d="M246 0l6.667 10H292a4 4 0 0 1 4 4v413a4 4 0 0 1-4 4H4a4 4 0 0 1-4-4V14a4 4 0 0 1 4-4h235.333L246 0z"/>
        <filter id="h" width="110.8%" height="107.4%" x="-5.4%" y="-3.2%" filterUnits="objectBoundingBox">
            <feOffset dy="2" in="SourceAlpha" result="shadowOffsetOuter1"/>
            <feGaussianBlur in="shadowOffsetOuter1" result="shadowBlurOuter1" stdDeviation="5"/>
            <feColorMatrix in="shadowBlurOuter1" values="0 0 0 0 0.346666667 0 0 0 0 0.35047619 0 0 0 0 0.4 0 0 0 0.283489948 0"/>
        </filter>
    </defs>
    <g fill="none" fill-rule="evenodd">
        <g transform="translate(1 55)">
            <mask id="b" fill="#fff">
                <use xlink:href="#a"/>
            </mask>
            <use fill="#FFF" stroke="#DADCE0" xlink:href="#a"/>
            <g font-family="HelveticaNeue-Medium, Helvetica Neue" font-size="14" font-weight="400" mask="url(#b)">
                <text transform="translate(237 4)">
                    <tspan x="0" y="24" fill="#D8DAE0">CELL TEXT</tspan>
                </text>
            </g>
            <text fill="#8894A0" font-family="HelveticaNeue-Medium, Helvetica Neue" font-size="14" font-weight="400" mask="url(#b)">
                <tspan x="45" y="28">CELL TEXT</tspan>
            </text>
            <use fill="#FFF" stroke="#DADCE0" xlink:href="#c"/>
            <path fill="#FFF" stroke="#DADCE0" d="M0 114h605v60H0z"/>
            <text fill="#212931" font-family="HelveticaNeue, Helvetica Neue" font-size="16" transform="translate(237 62)">
                <tspan x="0" y="26">Cell Text</tspan>
            </text>
            <text fill="#212931" font-family="HelveticaNeue, Helvetica Neue" font-size="16" transform="translate(45 62)">
                <tspan x="0" y="26">Cell Text</tspan>
            </text>
            <text fill="#212931" font-family="HelveticaNeue, Helvetica Neue" font-size="16" transform="translate(237 122)">
                <tspan x="0" y="26">Cell Text</tspan>
            </text>
            <text fill="#212931" font-family="HelveticaNeue, Helvetica Neue" font-size="16" transform="translate(45 122)">
                <tspan x="0" y="26">Cell Text</tspan>
            </text>
            <path fill="#FFF" stroke="#DADCE0" d="M0 174h605v60H0z"/>
            <text fill="#212931" font-family="HelveticaNeue, Helvetica Neue" font-size="16" transform="translate(237 182)">
                <tspan x="0" y="26">Cell Text</tspan>
            </text>
            <text fill="#212931" font-family="HelveticaNeue, Helvetica Neue" font-size="16" transform="translate(45 182)">
                <tspan x="0" y="26">Cell Text</tspan>
            </text>
            <path fill="#FFF" stroke="#DADCE0" d="M0 234h605v56a4 4 0 0 1-4 4H4a4 4 0 0 1-4-4v-56z"/>
            <text fill="#212931" font-family="HelveticaNeue, Helvetica Neue" font-size="16" transform="translate(237 242)">
                <tspan x="0" y="26">Cell Text</tspan>
            </text>
            <text fill="#8894A0" font-family="HelveticaNeue-Medium, Helvetica Neue" font-size="14" font-weight="400">
                <tspan x="429" y="28">CELL TEXT</tspan>
            </text>
            <text fill="#212931" font-family="HelveticaNeue, Helvetica Neue" font-size="16" transform="translate(429 62)">
                <tspan x="0" y="26">Cell Text</tspan>
            </text>
            <text fill="#212931" font-family="HelveticaNeue, Helvetica Neue" font-size="16" transform="translate(429 122)">
                <tspan x="0" y="26">Cell Text</tspan>
            </text>
            <text fill="#212931" font-family="HelveticaNeue, Helvetica Neue" font-size="16" transform="translate(429 182)">
                <tspan x="0" y="26">Cell Text</tspan>
            </text>
            <text fill="#212931" font-family="HelveticaNeue, Helvetica Neue" font-size="16" transform="translate(429 242)">
                <tspan x="0" y="26">Cell Text</tspan>
            </text>
            <text fill="#212931" font-family="HelveticaNeue, Helvetica Neue" font-size="16" transform="translate(45 242)">
                <tspan x="0" y="26">Cell Text</tspan>
            </text>
        </g>
        <rect width="139" height="43" x=".5" y=".5" fill="#FFF" stroke="#D6D6D6" rx="4" transform="translate(466)"/>
        <g transform="translate(586 17)">
            <mask id="e" fill="#fff">
                <use xlink:href="#d"/>
            </mask>
            <use fill="#FFF" fill-opacity="0" xlink:href="#d"/>
            <g mask="url(#e)">
                <mask id="g" fill="#fff">
                    <use xlink:href="#f"/>
                </mask>
                <use fill="#FFF" fill-opacity="0" xlink:href="#f"/>
                <g fill="#9EA0A5" mask="url(#g)">
                    <path d="M0 0h6v10H0z"/>
                </g>
            </g>
        </g>
        <text fill="#3E3F42" font-family="HelveticaNeue, Helvetica Neue" font-size="14" transform="translate(466)">
            <tspan x="16" y="23">Export Option</tspan>
        </text>
        <g>
            <rect width="97" height="43" x=".5" y=".5" fill="#FFF" stroke="#5C281A" rx="4" transform="translate(356)"/>
            <text fill="#3E3F42" font-family="HelveticaNeue, Helvetica Neue" font-size="14" transform="translate(356)">
                <tspan x="44" y="23">Filter</tspan>
            </text>
            <path d="M366 10h24v24h-24z"/>
            <path fill="#5C281A" d="M376 26h4c.55 0 1 .45 1 1 0 .51-.388.935-.884.993L380 28h-4c-.55 0-1-.45-1-1 0-.51.388-.935.884-.993L376 26h4zm7-5c.55 0 1 .45 1 1s-.45 1-1 1h-10c-.55 0-1-.45-1-1s.45-1 1-1zm-12.111-5h14.222c.489 0 .889.45.889 1 0 .51-.345.935-.786.993l-.103.007H370.89c-.489 0-.889-.45-.889-1 0-.51.345-.935.786-.993l.103-.007h14.222z"/>
            <g transform="translate(158 44)">
                <use fill="#000" filter="url(#h)" xlink:href="#i"/>
                <use fill="#FFF" xlink:href="#i"/>
                <g transform="translate(0 355)">
                    <rect width="296" height="60" fill="#F6F8FA" rx="4"/>
                    <g transform="translate(38 8)">
                        <rect width="220" height="44" fill="#66332B" rx="4"/>
                        <text fill="#FFF" font-family="HelveticaNeue-Medium, Helvetica Neue" font-size="14" font-weight="400">
                            <tspan x="88.216" y="28">APPLY</tspan>
                        </text>
                    </g>
                </g>
                <g transform="translate(32 34)">
                    <text fill="#8894A0" font-family="HelveticaNeue-Bold, Helvetica Neue" font-size="12" font-weight="bold">
                        <tspan x="0" y="12">BY TYPE</tspan>
                    </text>
                    <text fill="#34495E" font-family="HelveticaNeue, Helvetica Neue" font-size="14">
                        <tspan x="32" y="41">Residential Garage Door</tspan>
                    </text>
                    <text fill="#34495E" font-family="HelveticaNeue, Helvetica Neue" font-size="14">
                        <tspan x="32" y="71">Residential Entry Door</tspan>
                    </text>
                    <rect width="18" height="18" y="27" fill="#66332B" rx="2"/>
                    <rect width="17" height="17" x=".5" y="57.5" fill="#FFF" stroke="#66332B" rx="2"/>
                    <path fill="#FFF" fill-rule="nonzero" d="M12.67 32l-5.34 5.34-2-2.01L4 36.67 7.33 40 14 33.33z"/>
                </g>
                <g transform="translate(32 141)">
                    <text fill="#8894A0" font-family="HelveticaNeue-Bold, Helvetica Neue" font-size="12" font-weight="bold">
                        <tspan x="0" y="12">BY OPEN/CLOSE</tspan>
                    </text>
                    <text fill="#34495E" font-family="HelveticaNeue, Helvetica Neue" font-size="14">
                        <tspan x="32" y="41">Open</tspan>
                    </text>
                    <text fill="#34495E" font-family="HelveticaNeue, Helvetica Neue" font-size="14">
                        <tspan x="32" y="71">Close</tspan>
                    </text>
                    <g transform="translate(0 27)">
                        <rect width="18" height="18" fill="#66332B" rx="2"/>
                        <path fill="#FFF" fill-rule="nonzero" d="M12.67 5l-5.34 5.34-2-2.01L4 9.67 7.33 13 14 6.33z"/>
                    </g>
                    <rect width="17" height="17" x=".5" y="57.5" fill="#FFF" stroke="#66332B" rx="2"/>
                </g>
                <g transform="translate(32 248)">
                    <rect width="17" height="17" x=".5" y="27.5" fill="#FFF" stroke="#66332B" rx="2"/>
                    <rect width="18" height="18" y="57" fill="#66332B" rx="2"/>
                    <text fill="#8894A0" font-family="HelveticaNeue-Bold, Helvetica Neue" font-size="12" font-weight="bold">
                        <tspan x="0" y="12">BY STATUS</tspan>
                    </text>
                    <text fill="#34495E" font-family="HelveticaNeue, Helvetica Neue" font-size="14">
                        <tspan x="32" y="41">Pending</tspan>
                    </text>
                    <text fill="#34495E" font-family="HelveticaNeue, Helvetica Neue" font-size="14">
                        <tspan x="32" y="71">Confirmed</tspan>
                    </text>
                    <path fill="#FFF" fill-rule="nonzero" d="M12.67 62l-5.34 5.34-2-2.01L4 66.67 7.33 70 14 63.33z"/>
                </g>
                <rect width="4" height="180" x="286" y="35" fill="#8894A0" opacity=".4" rx="2"/>
            </g>
            <g transform="translate(195)">
                <rect width="150" height="43" x=".5" y=".5" fill="#FFF" stroke="#D6D6D6" rx="4"/>
                <path fill="#868686" fill-rule="nonzero" d="M26.707 27.293l-3.677-3.677A5.5 5.5 0 1 0 13 20.5a5.5 5.5 0 0 0 8.616 4.53l3.677 3.677a.999.999 0 1 0 1.414-1.414zM14.5 20.5a4 4 0 1 1 8 0 4 4 0 0 1-8 0z"/>
                <text fill="#999" font-family="HelveticaNeue, Helvetica Neue" font-size="16">
                    <tspan x="37" y="28">Search</tspan>
                </text>
            </g>
        </g>
    </g>
</svg>
