<svg xmlns="http://www.w3.org/2000/svg" xmlns:xlink="http://www.w3.org/1999/xlink" width="607" height="416" viewBox="0 0 607 416">
    <defs>
        <path id="a" d="M4 0h597a4 4 0 0 1 4 4v50H0V4a4 4 0 0 1 4-4z"/>
        <path id="c" d="M0 54h605v60H0z"/>
        <path id="d" d="M5.998 6.943L2.943 9.998 0 7.055l5.998-.112zM3.045 0L5.98 2.934 0 3.045 3.045 0z"/>
        <path id="f" d="M5.998 6.943L2.943 9.998 0 7.055l5.998-.112zM3.045 0L5.98 2.934 0 3.045 3.045 0z"/>
    </defs>
    <g fill="none" fill-rule="evenodd">
        <g transform="translate(1 121)">
            <mask id="b" fill="#fff">
                <use xlink:href="#a"/>
            </mask>
            <use fill="#FFF" stroke="#DADCE0" xlink:href="#a"/>
            <text fill="#8894A0" font-family="HelveticaNeue-Medium, Helvetica Neue" font-size="14" font-weight="400" mask="url(#b)">
                <tspan x="237" y="28">CELL TEXT</tspan>
            </text>
            <text fill="#8894A0" font-family="HelveticaNeue-Medium, Helvetica Neue" font-size="14" font-weight="400" mask="url(#b)">
                <tspan x="45" y="28">CELL TEXT</tspan>
            </text>
            <use fill="#FFF" stroke="#DADCE0" xlink:href="#c"/>
            <path fill="#FFF" stroke="#DADCE0" d="M0 114h605v60H0z"/>
            <text fill="#212931" font-family="HelveticaNeue, Helvetica Neue" font-size="16" transform="translate(237 62)">
                <tspan x="0" y="26">Cell Text</tspan>
            </text>
            <text fill="#212931" font-family="HelveticaNeue, Helvetica Neue" font-size="16" transform="translate(45 62)">
                <tspan x="0" y="26">Cell Text</tspan>
            </text>
            <text fill="#212931" font-family="HelveticaNeue, Helvetica Neue" font-size="16" transform="translate(237 122)">
                <tspan x="0" y="26">Cell Text</tspan>
            </text>
            <text fill="#212931" font-family="HelveticaNeue, Helvetica Neue" font-size="16" transform="translate(45 122)">
                <tspan x="0" y="26">Cell Text</tspan>
            </text>
            <path fill="#FFF" stroke="#DADCE0" d="M0 174h605v60H0z"/>
            <text fill="#212931" font-family="HelveticaNeue, Helvetica Neue" font-size="16" transform="translate(237 182)">
                <tspan x="0" y="26">Cell Text</tspan>
            </text>
            <text fill="#212931" font-family="HelveticaNeue, Helvetica Neue" font-size="16" transform="translate(45 182)">
                <tspan x="0" y="26">Cell Text</tspan>
            </text>
            <path fill="#FFF" stroke="#DADCE0" d="M0 234h605v56a4 4 0 0 1-4 4H4a4 4 0 0 1-4-4v-56z"/>
            <text fill="#212931" font-family="HelveticaNeue, Helvetica Neue" font-size="16" transform="translate(237 242)">
                <tspan x="0" y="26">Cell Text</tspan>
            </text>
            <text fill="#8894A0" font-family="HelveticaNeue-Medium, Helvetica Neue" font-size="14" font-weight="400">
                <tspan x="429" y="28">CELL TEXT</tspan>
            </text>
            <text fill="#212931" font-family="HelveticaNeue, Helvetica Neue" font-size="16" transform="translate(429 62)">
                <tspan x="0" y="26">Cell Text</tspan>
            </text>
            <text fill="#212931" font-family="HelveticaNeue, Helvetica Neue" font-size="16" transform="translate(429 122)">
                <tspan x="0" y="26">Cell Text</tspan>
            </text>
            <text fill="#212931" font-family="HelveticaNeue, Helvetica Neue" font-size="16" transform="translate(429 182)">
                <tspan x="0" y="26">Cell Text</tspan>
            </text>
            <text fill="#212931" font-family="HelveticaNeue, Helvetica Neue" font-size="16" transform="translate(429 242)">
                <tspan x="0" y="26">Cell Text</tspan>
            </text>
            <text fill="#212931" font-family="HelveticaNeue, Helvetica Neue" font-size="16" transform="translate(45 242)">
                <tspan x="0" y="26">Cell Text</tspan>
            </text>
        </g>
        <rect width="139" height="43" x=".5" y=".5" fill="#FFF" stroke="#D6D6D6" rx="4" transform="translate(466)"/>
        <g transform="translate(586 17)">
            <mask id="e" fill="#fff">
                <use xlink:href="#d"/>
            </mask>
            <use fill="#FFF" fill-opacity="0" xlink:href="#d"/>
            <g mask="url(#e)">
                <mask id="g" fill="#fff">
                    <use xlink:href="#f"/>
                </mask>
                <use fill="#FFF" fill-opacity="0" xlink:href="#f"/>
                <g fill="#9EA0A5" mask="url(#g)">
                    <path d="M0 0h6v10H0z"/>
                </g>
            </g>
        </g>
        <text fill="#3E3F42" font-family="HelveticaNeue, Helvetica Neue" font-size="14" transform="translate(466)">
            <tspan x="16" y="23">Export Option</tspan>
        </text>
        <rect width="119" height="43" x=".5" y=".5" fill="#E3E8ED" stroke="#7D8B9B" rx="4" transform="translate(336)"/>
        <text fill="#3E3F42" font-family="HelveticaNeue-Bold, Helvetica Neue" font-size="14" font-weight="bold" transform="translate(336)">
            <tspan x="50" y="24">Filter</tspan>
        </text>
        <path d="M352 10h24v24h-24z"/>
        <path fill="#7D8B9B" fill-rule="nonzero" d="M362 28h4v-2h-4v2zm-7-12v2h18v-2h-18zm3 7h12v-2h-12v2z"/>
        <g transform="translate(146)">
            <rect width="179" height="43" x=".5" y=".5" fill="#FFF" stroke="#D6D6D6" rx="4"/>
            <path fill="#868686" fill-rule="nonzero" d="M33.707 27.293l-3.677-3.677A5.5 5.5 0 1 0 20 20.5a5.5 5.5 0 0 0 8.616 4.53l3.677 3.677a.999.999 0 1 0 1.414-1.414zM21.5 20.5a4 4 0 1 1 8 0 4 4 0 0 1-8 0z"/>
            <text fill="#999" font-family="HelveticaNeue, Helvetica Neue" font-size="16">
                <tspan x="44" y="28">Search</tspan>
            </text>
        </g>
        <g transform="translate(1 56)">
            <path fill="#F6F8FA" d="M4 0h597a4 4 0 0 1 4 4v44a4 4 0 0 1-4 4H4a4 4 0 0 1-4-4V4a4 4 0 0 1 4-4z"/>
            <text fill="#212931" font-family="HelveticaNeue-Bold, Helvetica Neue" font-size="18" font-weight="bold">
                <tspan x="16" y="34">Filter by</tspan>
            </text>
            <text fill="#202123" font-family="HelveticaNeue-Bold, Helvetica Neue" font-size="16" font-weight="bold">
                <tspan x="532" y="32">Clear all</tspan>
            </text>
            <rect width="115" height="31" x="96.5" y="11.5" fill="#E3E8ED" stroke="#7D8B9B" rx="4"/>
            <path d="M184 17h20v20h-20z"/>
            <path fill="#7D8B9B" fill-rule="nonzero" d="M199.25 21.758a.83.83 0 0 0-1.175 0L194 25.825l-4.075-4.075a.83.83 0 1 0-1.175 1.175L192.825 27l-4.075 4.075a.83.83 0 1 0 1.175 1.175L194 28.175l4.075 4.075a.83.83 0 1 0 1.175-1.175L195.175 27l4.075-4.075a.835.835 0 0 0 0-1.167z"/>
            <text fill="#2A292A" font-family="HelveticaNeue, Helvetica Neue" font-size="14">
                <tspan x="104" y="32">Store # 0742</tspan>
            </text>
        </g>
    </g>
</svg>
