<?xml version="1.0" encoding="UTF-8"?>
<svg width="432px" height="121px" viewBox="0 0 432 121" version="1.1" xmlns="http://www.w3.org/2000/svg" xmlns:xlink="http://www.w3.org/1999/xlink">
    <!-- Generator: sketchtool 55.1 (78136) - https://sketchapp.com -->
    <title>7379B952-E347-437D-B803-B5C4ED721E33</title>
    <desc>Created with sketchtool.</desc>
    <g id="CloPayDesignSystem" stroke="none" stroke-width="1" fill="none" fill-rule="evenodd">
        <g id="CDS_52" transform="translate(-153.000000, -575.000000)">
            <g id="Group-6" transform="translate(153.000000, 573.000000)">
                <path d="M25,23.5 L10,23.5" id="Line" stroke="#FF1644" stroke-width="0.5" stroke-dasharray="1"></path>
                <path d="M25,122.5 L10,122.5" id="Line-Copy" stroke="#FF1644" stroke-width="0.5" stroke-dasharray="1"></path>
                <rect id="Rectangle" fill="#FF1644" x="0" y="60" width="26" height="20"></rect>
                <path d="M17.5000001,23.5 L17.9999999,122" id="Line-3" stroke="#FF1644" stroke-width="0.5" stroke-linecap="square" transform="translate(17.750000, 72.750000) rotate(-0.000000) translate(-17.750000, -72.750000) "></path>
                <text id="100" font-family="HelveticaNeue-Bold, Helvetica Neue" font-size="13" font-weight="bold" letter-spacing="0.2" fill="#FFFFFF">
                    <tspan x="2" y="75">100</tspan>
                </text>
                <rect id="Rectangle-Copy" stroke="#8894A0" fill="#FFFFFF" x="32.5" y="23.5" width="399" height="99" rx="4"></rect>
                <text id="Placeholder-Text" font-family="HelveticaNeue, Helvetica Neue" font-size="16" font-weight="normal" letter-spacing="0.2707692" fill="#939393">
                    <tspan x="46" y="50">Placeholder Text</tspan>
                </text>
                <text id="Default-State---Mult" font-family="HelveticaNeue, Helvetica Neue" font-size="14" font-weight="normal" letter-spacing="0.2369231" fill="#626364">
                    <tspan x="32" y="13">Default State - Multiline text field</tspan>
                </text>
            </g>
        </g>
    </g>
</svg>