<svg width="22" height="22" viewBox="0 0 22 22" fill="none" xmlns="http://www.w3.org/2000/svg">
<path fill-rule="evenodd" clip-rule="evenodd" d="M21.6654 11.0007C21.6654 16.8917 16.8897 21.6673 10.9987 21.6673C5.10766 21.6673 0.332031 16.8917 0.332031 11.0007C0.332031 5.10961 5.10766 0.333984 10.9987 0.333984C16.8897 0.333984 21.6654 5.10961 21.6654 11.0007ZM6.7319 8.76501C6.7319 8.13923 6.82577 7.57035 7.0135 7.05835C7.20124 6.54635 7.4743 6.10831 7.8327 5.74422C8.1911 5.38012 8.62346 5.09853 9.12977 4.89942C9.63608 4.7003 10.2021 4.60075 10.8279 4.60075C11.3513 4.60075 11.8377 4.67755 12.2871 4.83115C12.7365 4.98475 13.1291 5.20661 13.4647 5.49675C13.8003 5.78688 14.0649 6.14812 14.2583 6.58048C14.4517 7.01284 14.5484 7.50208 14.5484 8.04821C14.5484 8.44644 14.5058 8.79061 14.4204 9.08075C14.3351 9.37088 14.2213 9.62119 14.0791 9.83168C13.9369 10.0422 13.7747 10.2299 13.5927 10.3949C13.4107 10.5599 13.2286 10.722 13.0466 10.8813C12.8304 11.0633 12.6313 11.2397 12.4492 11.4103C12.2672 11.581 12.1079 11.7716 11.9714 11.9821C11.8348 12.1926 11.7296 12.44 11.6556 12.7245C11.5817 13.0089 11.5447 13.3559 11.5447 13.7655H9.7015C9.7015 13.2649 9.7271 12.8411 9.7783 12.4941C9.8295 12.1471 9.91199 11.8427 10.0258 11.581C10.1395 11.3193 10.2789 11.0889 10.4439 10.8898C10.6089 10.6907 10.8051 10.4944 11.0327 10.301C11.2147 10.1417 11.3883 9.99382 11.5532 9.85728C11.7182 9.72075 11.8661 9.56999 11.997 9.40501C12.1278 9.24004 12.2302 9.05515 12.3042 8.85035C12.3781 8.64555 12.4151 8.40093 12.4151 8.11648C12.4151 7.77515 12.3554 7.48217 12.2359 7.23755C12.1164 6.99292 11.9714 6.79666 11.8007 6.64875C11.63 6.50084 11.448 6.39275 11.2546 6.32448C11.0611 6.25621 10.8905 6.22208 10.7426 6.22208C10.0371 6.22208 9.51661 6.45248 9.18097 6.91328C8.84532 7.37408 8.6775 7.99132 8.6775 8.76501H6.7319ZM9.44551 14.9432H11.7324V17.0765H9.44551V14.9432Z" fill="white"/>
</svg>
