<svg xmlns="http://www.w3.org/2000/svg" width="44" height="44" viewBox="0 0 44 44">
    <g fill="none" fill-rule="evenodd">
        <path fill="#FACA30" fill-rule="nonzero" d="M32.509 10.645a4.365 4.365 0 0 0-1.912-5.884 4.402 4.402 0 0 0-5.906 1.918l-2.513 4.911 7.818 3.966 2.513-4.91zM19.997 30.213l-2.88.936-.04-.02-.932-2.87-2.698.392-.349.68 1.423 6.842 6.395-2.876.349-.68z"/>
        <path fill="#34495E" fill-rule="nonzero" stroke="#34495E" stroke-width=".5" d="M30.979 4.014a5.206 5.206 0 0 0-3.99-.309A5.206 5.206 0 0 0 23.943 6.3l-2.513 4.911-8.73 17.06-.35.681a.836.836 0 0 0-.074.55l1.423 6.843a.835.835 0 0 0 1.166.591l6.395-2.876a.84.84 0 0 0 .404-.384l.348-.68L28.07 21.16a.835.835 0 0 0-.366-1.126.842.842 0 0 0-1.13.367l-5.32 10.396-.514-.975a.838.838 0 0 0-1.001-.405l-.982.32 5.404-10.56a.835.835 0 0 0-.366-1.126.842.842 0 0 0-1.13.367l-5.404 10.56-.317-.979a.839.839 0 0 0-.918-.569l-1.095.16 7.612-14.874 7.07 3.587a.839.839 0 0 0 1.13-.367l2.513-4.911a5.205 5.205 0 0 0-2.277-7.01zm-10.66 28.61l-.016.031-5.172 2.326-1.15-5.533.015-.031 1.568-.228.715 2.2a.835.835 0 0 0 .416.486l.04.02c.199.1.43.118.64.05l2.208-.717.736 1.396zm11.442-22.358l-2.131 4.165-6.323-3.208.624-1.219 4.277 2.17a.839.839 0 0 0 1.13-.367.835.835 0 0 0-.366-1.125l-4.277-2.17.743-1.453a3.535 3.535 0 0 1 2.068-1.762 3.534 3.534 0 0 1 2.709.21 3.534 3.534 0 0 1 1.546 4.76z"/>
        <path stroke="#34495E" stroke-linecap="round" stroke-linejoin="round" stroke-width="2" d="M14.501 36.897c-2.472 1.64-4.324 1.727-5.556.259-1.848-2.203-3.464-1.496-4.87-.318"/>
    </g>
</svg>
