<svg xmlns="http://www.w3.org/2000/svg" width="44" height="44" viewBox="0 0 44 44">
    <g fill="none" fill-rule="evenodd" transform="translate(3 2)">
        <path fill="#34495E" d="M1.289 34.372A1.279 1.279 0 0 1 0 33.103V1.268C0 .568.577 0 1.289 0s1.289.568 1.289 1.268v31.835c0 .7-.577 1.269-1.29 1.269zM6.53 28.357a1.289 1.289 0 0 1-1.288-1.29V11.6a1.289 1.289 0 0 1 2.578 0v15.468c0 .712-.578 1.289-1.29 1.289zM6.53 7.734A1.296 1.296 0 0 1 5.243 6.43V1.302C5.242.583 5.819 0 6.53 0S7.82.583 7.82 1.302v5.13c0 .719-.578 1.302-1.29 1.302zM17.035 12.03c-.711 0-1.288-.565-1.288-1.26V1.26c0-.696.577-1.261 1.288-1.261.712 0 1.29.565 1.29 1.261v9.508c0 .696-.578 1.261-1.29 1.261zM11.88 28.357a1.289 1.289 0 0 1-1.29-1.29V1.29a1.289 1.289 0 0 1 2.579 0v25.779c0 .712-.577 1.289-1.29 1.289z"/>
        <circle cx="25.628" cy="27.068" r="9.023" fill="#FACA30" fill-rule="nonzero"/>
        <path fill="#34495E" d="M38.575 37.36l-4.258-4.243a10.25 10.25 0 0 0 2.198-6.365c0-.898-.116-1.778-.337-2.624.005-.047.008-.094.008-.142V1.269c0-.7-.57-1.269-1.273-1.269S33.64.568 33.64 1.27v18.337c-.056-.058-.11-.117-.167-.174-1-.997-2.168-1.764-3.44-2.277V1.269c0-.7-.57-1.269-1.274-1.269-.703 0-1.273.568-1.273 1.27V16.49a10.45 10.45 0 0 0-4.372.352V1.269c0-.7-.57-1.269-1.273-1.269s-1.273.568-1.273 1.27V18.01a10.46 10.46 0 0 0-2.224 1.895v-3.39c0-.7-.57-1.269-1.273-1.269s-1.273.569-1.273 1.27v9.197c-.034.342-.051.689-.051 1.038 0 2.765 1.08 5.364 3.04 7.319a10.334 10.334 0 0 0 7.344 3.031c2.344 0 4.568-.771 6.385-2.19l4.258 4.244a1.272 1.272 0 0 0 1.8 0c.498-.496.498-1.3 0-1.795zm-17.986-5.084a7.748 7.748 0 0 1-2.296-5.524c0-2.087.815-4.049 2.296-5.524a7.865 7.865 0 0 1 1.833-1.362l.044-.023a7.819 7.819 0 0 1 3.665-.903 7.887 7.887 0 0 1 2.297.34 7.803 7.803 0 0 1 3.245 1.948 7.749 7.749 0 0 1 2.295 5.524 7.748 7.748 0 0 1-2.295 5.524 7.799 7.799 0 0 1-5.542 2.288 7.799 7.799 0 0 1-5.542-2.288z"/>
    </g>
</svg>
