<svg xmlns="http://www.w3.org/2000/svg" width="90" height="90" viewBox="0 0 90 90">
    <g fill="none" fill-rule="evenodd">
        <path fill="#FACA30" d="M43.67 19.2l16.62 29.385-24.65 6.394-8.06-14.165z"/>
        <path fill="#34495E" fill-rule="nonzero" stroke="#34495E" stroke-width=".844" d="M29.177 77.365c1.54 2.702 5.004 3.702 7.744 2.1 2.71-1.585 3.642-5.09 2.074-7.834l-4.252-7.451 3.682-2.15c.678-.397.91-1.274.519-1.959l-1.843-3.23c.22-.042 1.665-.33 27.144-5.386 3.15-.173 5.037-3.658 3.446-6.444l-4.71-8.253 3.01-4.612a1.449 1.449 0 0 0 .045-1.507l-2.834-4.966a1.416 1.416 0 0 0-1.313-.714l-5.452.33-5.228-9.161a4.208 4.208 0 0 0-3.63-2.151h-.053a4.203 4.203 0 0 0-3.58 1.983L25.433 39.82l-12.035 7.03c-4.734 2.763-6.373 8.907-3.63 13.709 2.505 4.39 7.787 6.117 12.272 4.3l7.137 12.507zm6.813-4.213c.757 1.411.309 3.218-1.004 4.035-1.317.821-2.995.317-3.743-1.081L24.392 63.31l4.747-2.955 6.851 12.796zm-2.16-11.47l-1.46-2.52 2.528-1.456 1.46 2.52-2.529 1.455zm27.085-34.454l2.034 3.723-1.814 2.903-3.504-6.417 3.284-.209zM46.16 17.314a1.415 1.415 0 0 1 1.25-.686c.246.002.86.078 1.23.714l16.774 28.811c.546.938-.118 2.117-1.214 2.144-.196.005-.287.04-.79.133L45.664 17.954c.372-.474.42-.52.494-.64zm-2.082 3.289L60.29 48.895l-24.47 4.836-7.44-12.983 15.697-20.145zM12.03 59.415a7.362 7.362 0 0 1-.933-3.586c0-2.564 1.333-4.951 3.478-6.231l10.84-6.468 6.954 12.447-10.84 6.468c-3.32 1.981-7.582.801-9.5-2.63z"/>
        <path fill="#34495E" fill-rule="nonzero" stroke="#34495E" stroke-width="1.33" d="M79.475 18.04l-7.827 4.027c-.678.35-.922 1.14-.544 1.767.376.626 1.231.852 1.91.503l7.827-4.027c.678-.35.921-1.14.544-1.767s-1.233-.852-1.91-.503zM77.894 32.527l-5.255-1.355c-.726-.187-1.472.227-1.666.926-.195.698.236 1.416.962 1.603l5.256 1.356c.73.189 1.472-.232 1.666-.926.194-.699-.237-1.417-.963-1.604zM64.355 12.255l-1.361 5.239c-.188.723.228 1.466.929 1.66.7.194 1.42-.234 1.609-.958l1.36-5.239c.188-.723-.227-1.467-.928-1.66-.7-.194-1.421.235-1.609.958z"/>
    </g>
</svg>
