<svg xmlns="http://www.w3.org/2000/svg" width="24" height="24" viewBox="0 0 24 24">
    <g fill="none" fill-rule="evenodd">
        <path d="M0 0h24v24H0z"/>
        <path d="M0 0h24v24H0z"/>
        <path fill="#7d8b9b" d="M18.4 4H8.8a1.6 1.6 0 0 0-1.6 1.591v9.547a1.6 1.6 0 0 0 1.6 1.59h9.6a1.6 1.6 0 0 0 1.6-1.59V5.59A1.6 1.6 0 0 0 18.4 4zm-6.8 5.967c0 .66-.536 1.193-1.2 1.193h-.8v1.591H8.4V7.978h2c.664 0 1.2.533 1.2 1.193v.796zm4 1.59c0 .661-.536 1.194-1.2 1.194h-2V7.978h2c.664 0 1.2.533 1.2 1.193v2.387zm3.2-2.386h-1.2v.796h1.2v1.193h-1.2v1.591h-1.2V7.978h2.4V9.17zm-9.2.796h.8V9.17h-.8v.796zM4.8 7.182a.8.8 0 0 0-.8.8V18.32a1.6 1.6 0 0 0 1.6 1.591h10.404a.796.796 0 1 0 0-1.591H5.6V7.982a.8.8 0 0 0-.8-.8zm8.8 4.376h.8V9.17h-.8v2.387z"/>
    </g>
</svg>
