<svg xmlns="http://www.w3.org/2000/svg" width="24" height="24" viewBox="0 0 24 24">
    <g fill="none" fill-rule="evenodd">
        <path fill="#FFF" d="M0 0h24v24H0z"/>
        <path d="M0 0h24v24H0z"/>
        <path fill="#000" d="M12 4c4.4 0 8 3.6 8 8s-3.6 8-8 8-8-3.6-8-8 3.6-8 8-8zm0 14.4c3.52 0 6.4-2.88 6.4-6.4 0-3.52-2.88-6.4-6.4-6.4-3.52 0-6.4 2.88-6.4 6.4 0 3.52 2.88 6.4 6.4 6.4zm-1-9.891c0-.28.275-.509.615-.509.34 0 .615.227.615.508v3.645l2.654 3.042c.199.228.136.545-.14.71a.703.703 0 0 1-.359.095.66.66 0 0 1-.5-.211l-2.77-3.174a.453.453 0 0 1-.115-.298V8.51z"/>
    </g>
</svg>
