<?xml version="1.0" encoding="UTF-8"?>
<svg width="189px" height="130px" viewBox="0 0 189 130" version="1.1" xmlns="http://www.w3.org/2000/svg" xmlns:xlink="http://www.w3.org/1999/xlink">
    <!-- Generator: sketchtool 55.1 (78136) - https://sketchapp.com -->
    <title>E3EC9397-9AFF-4873-9366-5271AD3E0200</title>
    <desc>Created with sketchtool.</desc>
    <g id="CloPayDesignSystem" stroke="none" stroke-width="1" fill="none" fill-rule="evenodd">
        <g id="CDS_32" transform="translate(-747.000000, -226.000000)">
            <g id="Group-2" transform="translate(747.000000, 226.000000)">
                <rect id="Rectangle-Copy-2" fill="#34495E" x="0" y="34" width="189" height="52"></rect>
                <path d="M43,26.5 L43,89.5" id="Line-24-Copy-4" stroke="#FFFFFF" stroke-width="0.5" stroke-dasharray="1"></path>
                <path d="M35.5,82.5 L35.5,85.5 L153.5,85.5 L153.5,82.5 L35.5,82.5 Z" id="Rectangle-Copy-3" stroke="#F9C11C" fill="#FACA30"></path>
                <text id="Open-Orders" font-family="HelveticaNeue-Bold, Helvetica Neue" font-size="14" font-weight="bold" fill="#FFFFFF">
                    <tspan x="43" y="65">OPEN ORDERS</tspan>
                </text>
                <path d="M146,26.5 L146,89.5" id="Line-24-Copy-2" stroke="#FFFFFF" stroke-width="0.5" stroke-dasharray="1"></path>
                <path d="M154,26.5 L154,89.5" id="Line-24-Copy-3" stroke="#FFFFFF" stroke-width="0.5" stroke-dasharray="1"></path>
                <rect id="Rectangle" fill="#FF0000" x="144" y="35" width="12" height="12"></rect>
                <text id="8" font-family="HelveticaNeue, Helvetica Neue" font-size="12" font-weight="normal" fill="#FFFFFF">
                    <tspan x="147" y="45">8</tspan>
                </text>
                <path d="M35,26.5 L35,89.5" id="Line-24-Copy-5" stroke="#FFFFFF" stroke-width="0.5" stroke-dasharray="1"></path>
                <rect id="Rectangle-Copy" fill="#FF0000" x="33" y="35" width="12" height="12"></rect>
                <text id="8-copy" font-family="HelveticaNeue, Helvetica Neue" font-size="12" font-weight="normal" fill="#FFFFFF">
                    <tspan x="36" y="45">8</tspan>
                </text>
                <path d="M88.5,84 L88.5,114.007123" id="Line-26-Copy" stroke="#FF1644" stroke-width="0.5" stroke-linecap="square"></path>
                <circle id="Oval-Copy-4" fill="#FF1644" cx="88.5" cy="120.5" r="9.5"></circle>
                <text id="1" font-family="HelveticaNeue-Bold, Helvetica Neue" font-size="12" font-weight="bold" fill="#FFFFFF">
                    <tspan x="85" y="124">1</tspan>
                </text>
                <path d="M114,53 L114,20.9497094" id="Line-27-Copy" stroke="#FF1644" stroke-width="0.5" stroke-linecap="square"></path>
                <circle id="Oval-Copy-3" fill="#FF1644" cx="114.5" cy="9.5" r="9.5"></circle>
                <text id="2" font-family="HelveticaNeue-Bold, Helvetica Neue" font-size="12" font-weight="bold" fill="#FFFFFF">
                    <tspan x="111" y="13">2</tspan>
                </text>
            </g>
        </g>
    </g>
</svg>