<svg xmlns="http://www.w3.org/2000/svg" xmlns:xlink="http://www.w3.org/1999/xlink" width="623" height="358" viewBox="0 0 623 358">
    <defs>
        <path id="a" d="M4 0h597a4 4 0 0 1 4 4v50H0V4a4 4 0 0 1 4-4z"/>
        <path id="c" d="M0 55h605v60H0z"/>
        <path id="d" d="M5.998 6.943L2.943 9.998 0 7.055l5.998-.112zM0 3.045L3.045 0 5.98 2.934 0 3.045z"/>
        <path id="f" d="M5.998 6.943L2.943 9.998 0 7.055l5.998-.112zM0 3.045L3.045 0 5.98 2.934 0 3.045z"/>
        <path id="i" d="M4 0h599a4 4 0 0 1 4 4v222a4 4 0 0 1-4 4H4a4 4 0 0 1-4-4V4a4 4 0 0 1 4-4z"/>
        <filter id="h" width="105.3%" height="117.4%" x="-2.6%" y="-7%" filterUnits="objectBoundingBox">
            <feOffset dy="8" in="SourceAlpha" result="shadowOffsetOuter1"/>
            <feGaussianBlur in="shadowOffsetOuter1" result="shadowBlurOuter1" stdDeviation="4"/>
            <feColorMatrix in="shadowBlurOuter1" result="shadowMatrixOuter1" values="0 0 0 0 0.164705882 0 0 0 0 0.160784314 0 0 0 0 0.164705882 0 0 0 0.12 0"/>
            <feOffset in="SourceAlpha" result="shadowOffsetOuter2"/>
            <feGaussianBlur in="shadowOffsetOuter2" result="shadowBlurOuter2" stdDeviation="4"/>
            <feColorMatrix in="shadowBlurOuter2" result="shadowMatrixOuter2" values="0 0 0 0 0.164705882 0 0 0 0 0.160784314 0 0 0 0 0.164705882 0 0 0 0.12 0"/>
            <feMerge>
                <feMergeNode in="shadowMatrixOuter1"/>
                <feMergeNode in="shadowMatrixOuter2"/>
            </feMerge>
        </filter>
        <path id="j" d="M0 0h20v20H0z"/>
        <path id="m" d="M5.332 14.38c-.284-.36-.63-1.093-1.244-1.984-.348-.504-1.21-1.453-1.468-1.935-.223-.426-.199-.617-.146-.97.094-.628.738-1.117 1.425-1.051.52.049.96.392 1.356.716.239.195.532.574.71.788.163.196.203.277.377.509.23.307.302.459.214.12-.072-.495-.188-1.342-.356-2.091-.128-.568-.159-.657-.28-1.093-.13-.464-.196-.79-.316-1.281-.085-.348-.236-1.06-.277-1.46-.056-.546-.087-1.438.264-1.848.276-.321.906-.418 1.297-.22.513.259.803 1.003.936 1.3.24.534.387 1.15.517 1.96.164 1.032.466 2.463.476 2.764.024-.37-.069-1.146-.005-1.5.059-.321.329-.694.667-.795.286-.085.62-.116.916-.055.313.064.643.288.766.499.362.624.369 1.899.383 1.83.086-.375.072-1.228.284-1.583.14-.234.498-.445.688-.48.293-.051.655-.067.963-.007.25.049.587.345.678.487.217.344.341 1.317.379 1.658.014.14.074-.392.293-.736.405-.64 1.843-.763 1.898.639.024.654.02.624.02 1.064 0 .517-.012.828-.04 1.202-.032.4-.117 1.304-.242 1.742-.087.3-.372.978-.652 1.384 0 0-1.075 1.25-1.192 1.813-.117.562-.079.566-.101.965-.024.398.12.922.12.922s-.802.104-1.234.035c-.39-.063-.875-.841-1-1.08-.171-.327-.539-.264-.681-.022-.226.383-.71 1.07-1.051 1.113-.668.084-2.054.03-3.14.02 0 0 .186-1.011-.226-1.358-.305-.26-.83-.784-1.144-1.06l-.832-.921z"/>
        <filter id="l" width="149%" height="145.8%" x="-24.5%" y="-16.4%" filterUnits="objectBoundingBox">
            <feMorphology in="SourceAlpha" operator="dilate" radius=".25" result="shadowSpreadOuter1"/>
            <feOffset dy="1" in="shadowSpreadOuter1" result="shadowOffsetOuter1"/>
            <feGaussianBlur in="shadowOffsetOuter1" result="shadowBlurOuter1" stdDeviation=".75"/>
            <feColorMatrix in="shadowBlurOuter1" values="0 0 0 0 0 0 0 0 0 0 0 0 0 0 0 0 0 0 0.15 0"/>
        </filter>
        <path id="o" d="M5.332 14.38c-.284-.36-.63-1.093-1.244-1.984-.348-.504-1.21-1.453-1.468-1.935-.223-.426-.199-.617-.146-.97.094-.628.738-1.117 1.425-1.051.52.049.96.392 1.356.716.239.195.532.574.71.788.163.196.203.277.377.509.23.307.302.459.214.12-.072-.495-.188-1.342-.356-2.091-.128-.568-.159-.657-.28-1.093-.13-.464-.196-.79-.316-1.281-.085-.348-.236-1.06-.277-1.46-.056-.546-.087-1.438.264-1.848.276-.321.906-.418 1.297-.22.513.259.803 1.003.936 1.3.24.534.387 1.15.517 1.96.164 1.032.466 2.463.476 2.764.024-.37-.069-1.146-.005-1.5.059-.321.329-.694.667-.795.286-.085.62-.116.916-.055.313.064.643.288.766.499.362.624.369 1.899.383 1.83.086-.375.072-1.228.284-1.583.14-.234.498-.445.688-.48.293-.051.655-.067.963-.007.25.049.587.345.678.487.217.344.341 1.317.379 1.658.014.14.074-.392.293-.736.405-.64 1.843-.763 1.898.639.024.654.02.624.02 1.064 0 .517-.012.828-.04 1.202-.032.4-.117 1.304-.242 1.742-.087.3-.372.978-.652 1.384 0 0-1.075 1.25-1.192 1.813-.117.562-.079.566-.101.965-.024.398.12.922.12.922s-.802.104-1.234.035c-.39-.063-.875-.841-1-1.08-.171-.327-.539-.264-.681-.022-.226.383-.71 1.07-1.051 1.113-.668.084-2.054.03-3.14.02 0 0 .186-1.011-.226-1.358-.305-.26-.83-.784-1.144-1.06l-.832-.921z"/>
        <filter id="n" width="126.2%" height="124.6%" x="-13.1%" y="-7.4%" filterUnits="objectBoundingBox">
            <feOffset dy=".75" in="SourceAlpha" result="shadowOffsetOuter1"/>
            <feGaussianBlur in="shadowOffsetOuter1" result="shadowBlurOuter1" stdDeviation=".5"/>
            <feColorMatrix in="shadowBlurOuter1" values="0 0 0 0 0 0 0 0 0 0 0 0 0 0 0 0 0 0 0.2 0"/>
        </filter>
    </defs>
    <g fill="none" fill-rule="evenodd">
        <g transform="translate(9 62)">
            <mask id="b" fill="#fff">
                <use xlink:href="#a"/>
            </mask>
            <use fill="#4F556B" stroke="#2A292A" xlink:href="#a"/>
            <g font-family="HelveticaNeue-Medium, Helvetica Neue" font-size="14" font-weight="400" mask="url(#b)">
                <text transform="translate(237 5)">
                    <tspan x="0" y="24" fill="#D8DAE0">CELL TEXT</tspan>
                </text>
            </g>
            <g font-family="HelveticaNeue-Medium, Helvetica Neue" font-size="14" font-weight="400" mask="url(#b)">
                <text transform="translate(45 5)">
                    <tspan x="0" y="24" fill="#D8DAE0">CELL TEXT</tspan>
                </text>
            </g>
            <use fill="#FFF" stroke="#DADCE0" xlink:href="#c"/>
            <path fill="#FFF" stroke="#DADCE0" d="M0 115h605v60H0z"/>
            <text fill="#212931" font-family="HelveticaNeue, Helvetica Neue" font-size="16" transform="translate(237 63)">
                <tspan x="0" y="26">Cell Text</tspan>
            </text>
            <text fill="#212931" font-family="HelveticaNeue, Helvetica Neue" font-size="16" transform="translate(45 63)">
                <tspan x="0" y="26">Cell Text</tspan>
            </text>
            <text fill="#212931" font-family="HelveticaNeue, Helvetica Neue" font-size="16" transform="translate(237 123)">
                <tspan x="0" y="26">Cell Text</tspan>
            </text>
            <text fill="#212931" font-family="HelveticaNeue, Helvetica Neue" font-size="16" transform="translate(45 123)">
                <tspan x="0" y="26">Cell Text</tspan>
            </text>
            <path fill="#FFF" stroke="#DADCE0" d="M0 175h605v60H0z"/>
            <text fill="#212931" font-family="HelveticaNeue, Helvetica Neue" font-size="16" transform="translate(237 183)">
                <tspan x="0" y="26">Cell Text</tspan>
            </text>
            <text fill="#212931" font-family="HelveticaNeue, Helvetica Neue" font-size="16" transform="translate(45 183)">
                <tspan x="0" y="26">Cell Text</tspan>
            </text>
            <path fill="#FFF" stroke="#DADCE0" d="M0 235h605v56a4 4 0 0 1-4 4H4a4 4 0 0 1-4-4v-56z"/>
            <text fill="#212931" font-family="HelveticaNeue, Helvetica Neue" font-size="16" transform="translate(237 243)">
                <tspan x="0" y="26">Cell Text</tspan>
            </text>
            <text fill="#D8DAE0" font-family="HelveticaNeue-Medium, Helvetica Neue" font-size="14" font-weight="400" transform="translate(429 5)">
                <tspan x="0" y="24">CELL TEXT</tspan>
            </text>
            <text fill="#212931" font-family="HelveticaNeue, Helvetica Neue" font-size="16" transform="translate(429 63)">
                <tspan x="0" y="26">Cell Text</tspan>
            </text>
            <text fill="#212931" font-family="HelveticaNeue, Helvetica Neue" font-size="16" transform="translate(429 123)">
                <tspan x="0" y="26">Cell Text</tspan>
            </text>
            <text fill="#212931" font-family="HelveticaNeue, Helvetica Neue" font-size="16" transform="translate(429 183)">
                <tspan x="0" y="26">Cell Text</tspan>
            </text>
            <text fill="#212931" font-family="HelveticaNeue, Helvetica Neue" font-size="16" transform="translate(429 243)">
                <tspan x="0" y="26">Cell Text</tspan>
            </text>
            <text fill="#212931" font-family="HelveticaNeue, Helvetica Neue" font-size="16" transform="translate(45 243)">
                <tspan x="0" y="26">Cell Text</tspan>
            </text>
        </g>
        <rect width="139" height="43" x=".5" y=".5" fill="#FFF" stroke="#D6D6D6" rx="4" transform="translate(474 8)"/>
        <g transform="translate(594 25)">
            <mask id="e" fill="#fff">
                <use xlink:href="#d"/>
            </mask>
            <use fill="#FFF" fill-opacity="0" xlink:href="#d"/>
            <g mask="url(#e)">
                <mask id="g" fill="#fff">
                    <use xlink:href="#f"/>
                </mask>
                <use fill="#FFF" fill-opacity="0" xlink:href="#f"/>
                <g fill="#9EA0A5" mask="url(#g)">
                    <path d="M0 0h6v10H0z"/>
                </g>
            </g>
        </g>
        <text fill="#3E3F42" font-family="HelveticaNeue, Helvetica Neue" font-size="14" transform="translate(474 8)">
            <tspan x="16" y="23">Export Option</tspan>
        </text>
        <rect width="97" height="43" x=".5" y=".5" fill="#FFF" stroke="#D6D6D6" rx="4" transform="translate(364 8)"/>
        <text fill="#3E3F42" font-family="HelveticaNeue, Helvetica Neue" font-size="14" transform="translate(364 8)">
            <tspan x="44" y="23">Filter</tspan>
        </text>
        <path d="M374 18h24v24h-24z"/>
        <path fill="#868686" fill-rule="nonzero" d="M384 36h4v-2h-4v2zm-7-12v2h18v-2h-18zm3 7h12v-2h-12v2z"/>
        <g transform="translate(11 8)">
            <rect width="602" height="43" x=".5" y=".5" fill="#FFF" stroke="#D6D6D6" rx="4"/>
            <path fill="#868686" fill-rule="nonzero" d="M33.707 27.293l-3.677-3.677A5.5 5.5 0 1 0 20 20.5a5.5 5.5 0 0 0 8.616 4.53l3.677 3.677a.999.999 0 1 0 1.414-1.414zM21.5 20.5a4 4 0 1 1 8 0 4 4 0 0 1-8 0z"/>
            <text fill="#999" font-family="HelveticaNeue, Helvetica Neue" font-size="16">
                <tspan x="44" y="28">Search</tspan>
            </text>
        </g>
        <g>
            <path fill="#34495E" fill-rule="nonzero" d="M585.474 30l6.555-6.554a1.042 1.042 0 1 0-1.474-1.474L584 28.526l-6.555-6.554a1.042 1.042 0 1 0-1.474 1.474L582.527 30l-6.555 6.554a1.042 1.042 0 1 0 1.474 1.474L584 31.474l6.554 6.554a1.04 1.04 0 0 0 1.474 0 1.042 1.042 0 0 0 0-1.474L585.474 30z"/>
        </g>
        <g>
            <g transform="translate(8 8)">
                <use fill="#000" filter="url(#h)" xlink:href="#i"/>
                <use fill="#FFF" xlink:href="#i"/>
            </g>
            <path fill="#000" fill-opacity=".062" d="M8 53h607v44H8z"/>
            <g transform="translate(130 69)">
                <mask id="k" fill="#fff">
                    <use xlink:href="#j"/>
                </mask>
                <g fill="#000" mask="url(#k)">
                    <use filter="url(#l)" xlink:href="#m"/>
                </g>
                <g fill="#000" mask="url(#k)">
                    <use filter="url(#n)" xlink:href="#o"/>
                </g>
                <path fill="#000" d="M14.724 7.471c.32-.289.797-.434 1.242-.366.657.102 1.103.628 1.135 1.442a21.874 21.874 0 0 1 .02.916v.162c0 .507-.01.83-.04 1.23-.055.708-.145 1.427-.256 1.817a6.172 6.172 0 0 1-.728 1.525 12.784 12.784 0 0 0-.769 1.005c-.192.288-.314.52-.34.641-.058.28-.076.407-.082.542l-.002.088a6.56 6.56 0 0 1-.01.28c-.003.056-.002.12.003.192a3.474 3.474 0 0 0 .105.608l.114.416-.427.056a7.821 7.821 0 0 1-.791.06 3.131 3.131 0 0 1-.551-.027c-.48-.077-.956-.673-1.273-1.275-.43.682-.9 1.23-1.354 1.288-.425.053-1.018.059-2.178.039l-.214-.004c-.427-.007-.588-.01-.797-.012l-.446-.005.08-.438a2.447 2.447 0 0 0 .026-.631c-.019-.194-.068-.324-.126-.373a15.08 15.08 0 0 1-.597-.55c-.329-.312-.432-.41-.583-.545l-.832-.92c-.16-.2-.949-1.552-1.273-2.023-.12-.174-.175-.243-.68-.865l-.05-.062c-.411-.508-.631-.803-.762-1.047-.236-.452-.261-.688-.184-1.2.125-.834.955-1.453 1.83-1.368.534.05.923.28 1.558.798.087.071.178.16.278.268a6.238 6.238 0 0 1 .227.26 23.157 23.157 0 0 0-.162-.829 15.797 15.797 0 0 0-.143-.596l-.015-.054a93 93 0 0 0-.119-.425c-.054-.194-.1-.372-.151-.588l-.023-.097c-.067-.285-.103-.439-.145-.608a14.005 14.005 0 0 1-.284-1.508c-.097-.93-.033-1.682.352-2.132.387-.453 1.205-.587 1.75-.31.315.158.565.438.784.812.07.12.135.247.2.386.037.08.14.314.126.283.242.54.401 1.16.544 2.055.026.162.056.34.092.543.157-.175.354-.311.569-.376.36-.107.754-.134 1.098-.062.406.083.832.364 1.015.678.028.049.055.1.08.156.208-.275.595-.517.885-.57a3.137 3.137 0 0 1 1.102-.006c.327.064.755.395.921.654.101.16.183.391.251.672z" mask="url(#k)"/>
                <path fill="#FFF" stroke="#000" stroke-width=".75" d="M5.332 14.38c-.284-.36-.63-1.093-1.244-1.984-.348-.504-1.21-1.453-1.468-1.935-.223-.426-.199-.617-.146-.97.094-.628.738-1.117 1.425-1.051.52.049.96.392 1.356.716.239.195.532.574.71.788.163.196.203.277.377.509.23.307.302.459.214.12-.072-.495-.188-1.342-.356-2.091-.128-.568-.159-.657-.28-1.093-.13-.464-.196-.79-.316-1.281-.085-.348-.236-1.06-.277-1.46-.056-.546-.087-1.438.264-1.848.276-.321.906-.418 1.297-.22.513.259.803 1.003.936 1.3.24.534.387 1.15.517 1.96.164 1.032.466 2.463.476 2.764.01.3-.069-1.146-.005-1.5.059-.321.329-.694.667-.795.286-.085.62-.116.916-.055.313.064.643.288.766.499.362.624.369 1.899.383 1.83.086-.375.072-1.228.284-1.583.14-.234.498-.445.688-.48.293-.051.655-.067.963-.007.25.049.587.345.678.487.217.344.341 1.317.379 1.658.014.14.074-.392.293-.736.405-.64 1.843-.763 1.898.639.024.654.02.624.02 1.064 0 .517-.012.828-.04 1.202-.032.4-.117 1.304-.242 1.742-.087.3-.372.978-.652 1.384 0 0-1.075 1.25-1.192 1.813-.117.562-.079.566-.101.965-.024.398.12.922.12.922s-.802.104-1.234.035c-.39-.063-.875-.841-1-1.08-.171-.327-.539-.264-.681-.022-.226.383-.71 1.07-1.051 1.113-.668.084-2.054.03-3.14.02 0 0 .186-1.011-.226-1.358-.305-.26-.83-.784-1.144-1.06l-.832-.921z" mask="url(#k)"/>
                <path stroke="#000" stroke-linecap="round" stroke-width=".75" d="M13.566 14.75v-3.5M11.55 14.746l-.015-3.5M9.555 14.75l.021-3.5" mask="url(#k)"/>
            </g>
            <text fill="#000" font-family="HelveticaNeue-Bold, Helvetica Neue" font-size="16" font-weight="bold" letter-spacing=".246" transform="translate(8 53)">
                <tspan x="16" y="16">074</tspan> <tspan x="43.426" y="16" font-family="HelveticaNeue, Helvetica Neue" font-weight="normal">3</tspan> <tspan x="16" y="60">074</tspan> <tspan x="43.426" y="60" font-family="HelveticaNeue, Helvetica Neue" font-weight="normal">44</tspan> <tspan x="16" y="104">074</tspan> <tspan x="43.426" y="104" font-family="HelveticaNeue, Helvetica Neue" font-weight="normal">45</tspan> <tspan x="16" y="148">074</tspan> <tspan x="43.426" y="148" font-family="HelveticaNeue, Helvetica Neue" font-weight="normal">556</tspan>
            </text>
            <path stroke="#979797" stroke-linecap="square" d="M10 52h603" opacity=".347"/>
            <path fill="#7D8B9B" fill-rule="nonzero" d="M38.623 37.805l-4.728-4.727A7.07 7.07 0 0 0 28.071 22 7.07 7.07 0 0 0 21 29.071a7.07 7.07 0 0 0 11.078 5.824l4.727 4.728a1.284 1.284 0 1 0 1.818-1.818zm-15.694-8.734a5.143 5.143 0 1 1 10.286 0 5.143 5.143 0 0 1-10.286 0z"/>
            <text fill="#0F0F0F" font-family="HelveticaNeue, Helvetica Neue" font-size="16" transform="translate(8 8)">
                <tspan x="41" y="28">074|</tspan>
            </text>
        </g>
    </g>
</svg>
