<?xml version="1.0" encoding="UTF-8"?>
<svg width="216px" height="64px" viewBox="0 0 216 64" version="1.1" xmlns="http://www.w3.org/2000/svg" xmlns:xlink="http://www.w3.org/1999/xlink">
    <!-- Generator: sketchtool 55.1 (78136) - https://sketchapp.com -->
    <title>36F7D6E1-3695-4840-9099-2CC94355DF06</title>
    <desc>Created with sketchtool.</desc>
    <defs>
        <path d="M5.9976391,6.94312516 L2.94312516,9.9976391 L-1.25233157e-13,7.05451394 L5.9976391,6.94312516 Z M-3.73034936e-14,3.0450687 L3.0450687,1.3211654e-13 L5.97909306,2.93402436 L-3.73034936e-14,3.0450687 Z" id="path-1"></path>
        <path d="M5.9976391,6.94312516 L2.94312516,9.9976391 L-1.25233157e-13,7.05451394 L5.9976391,6.94312516 Z M-3.73034936e-14,3.0450687 L3.0450687,1.3211654e-13 L5.97909306,2.93402436 L-3.73034936e-14,3.0450687 Z" id="path-3"></path>
    </defs>
    <g id="CloPayDesignSystem" stroke="none" stroke-width="1" fill="none" fill-rule="evenodd">
        <g id="CDS_55" transform="translate(-476.000000, -577.000000)">
            <g id="Group-4" transform="translate(476.000000, 574.000000)">
                <text id="Choose-time-Frame-Copy-3" font-family="HelveticaNeue-Medium, Helvetica Neue" font-size="14" font-weight="400" fill="#2A292A">
                    <tspan x="0" y="14">Choose time Frame</tspan>
                </text>
                <g id="Group-2-Copy-4" transform="translate(0.000000, 23.000000)">
                    <path d="M4,0.5 C2.06700338,0.5 0.5,2.06700338 0.5,4 L0.5,40 C0.5,41.9329966 2.06700338,43.5 4,43.5 L212,43.5 C213.932997,43.5 215.5,41.9329966 215.5,40 L215.5,4 C215.5,2.06700338 213.932997,0.5 212,0.5 L4,0.5 Z" id="Rectangle" stroke="#B6C0CC" fill="#FFFFFF"></path>
                    <text id="1pm-to-4pm" font-family="HelveticaNeue, Helvetica Neue" font-size="16" font-weight="normal" line-spacing="20" fill="#2A292A">
                        <tspan x="16" y="26">1pm to 4pm</tspan>
                    </text>
                </g>
                <g id="Icon/Other/Dropdown-Arrow" transform="translate(194.000000, 40.000000)">
                    <mask id="mask-2" fill="white">
                        <use xlink:href="#path-1"></use>
                    </mask>
                    <use id="Arrows" fill-opacity="0" fill="#FFFFFF" fill-rule="evenodd" xlink:href="#path-1"></use>
                    <g mask="url(#mask-2)">
                        <mask id="mask-4" fill="white">
                            <use xlink:href="#path-3"></use>
                        </mask>
                        <use id="Arrows" fill-opacity="0" fill="#FFFFFF" fill-rule="evenodd" xlink:href="#path-3"></use>
                        <g id="⚙️Atoms/Colour/Grey-Darker/1---100%" mask="url(#mask-4)" fill="#9EA0A5" fill-rule="evenodd">
                            <rect id="Colour" x="0" y="0" width="6" height="10"></rect>
                        </g>
                    </g>
                </g>
            </g>
        </g>
    </g>
</svg>