<svg xmlns="http://www.w3.org/2000/svg" xmlns:xlink="http://www.w3.org/1999/xlink" width="1120" height="146" viewBox="0 0 1120 146">
    <defs>
        <path id="a" d="M0 0h20v20H0z"/>
        <path id="d" d="M5.332 14.38c-.284-.36-.63-1.093-1.244-1.984-.348-.504-1.21-1.453-1.468-1.935-.223-.426-.199-.617-.146-.97.094-.628.738-1.117 1.425-1.051.52.049.96.392 1.356.716.239.195.532.574.71.788.163.196.203.277.377.509.23.307.302.459.214.12-.072-.495-.188-1.342-.356-2.091-.128-.568-.159-.657-.28-1.093-.13-.464-.196-.79-.316-1.281-.085-.348-.236-1.06-.277-1.46-.056-.546-.087-1.438.264-1.848.276-.321.906-.418 1.297-.22.513.259.803 1.003.936 1.3.24.534.387 1.15.517 1.96.164 1.032.466 2.463.476 2.764.024-.37-.069-1.146-.005-1.5.059-.321.329-.694.667-.795.286-.085.62-.116.916-.055.313.064.643.288.766.499.362.624.369 1.899.383 1.83.086-.375.072-1.228.284-1.583.14-.234.498-.445.688-.48.293-.051.655-.067.963-.007.25.049.587.345.678.487.217.344.341 1.317.379 1.658.014.14.074-.392.293-.736.405-.64 1.843-.763 1.898.639.024.654.02.624.02 1.064 0 .517-.012.828-.04 1.202-.032.4-.117 1.304-.242 1.742-.087.3-.372.978-.652 1.384 0 0-1.075 1.25-1.192 1.813-.117.562-.079.566-.101.965-.024.398.12.922.12.922s-.802.104-1.234.035c-.39-.063-.875-.841-1-1.08-.171-.327-.539-.264-.681-.022-.226.383-.71 1.07-1.051 1.113-.668.084-2.054.03-3.14.02 0 0 .186-1.011-.226-1.358-.305-.26-.83-.784-1.144-1.06l-.832-.921z"/>
        <filter id="c" width="149%" height="145.8%" x="-24.5%" y="-16.4%" filterUnits="objectBoundingBox">
            <feMorphology in="SourceAlpha" operator="dilate" radius=".25" result="shadowSpreadOuter1"/>
            <feOffset dy="1" in="shadowSpreadOuter1" result="shadowOffsetOuter1"/>
            <feGaussianBlur in="shadowOffsetOuter1" result="shadowBlurOuter1" stdDeviation=".75"/>
            <feColorMatrix in="shadowBlurOuter1" values="0 0 0 0 0 0 0 0 0 0 0 0 0 0 0 0 0 0 0.15 0"/>
        </filter>
        <path id="f" d="M5.332 14.38c-.284-.36-.63-1.093-1.244-1.984-.348-.504-1.21-1.453-1.468-1.935-.223-.426-.199-.617-.146-.97.094-.628.738-1.117 1.425-1.051.52.049.96.392 1.356.716.239.195.532.574.71.788.163.196.203.277.377.509.23.307.302.459.214.12-.072-.495-.188-1.342-.356-2.091-.128-.568-.159-.657-.28-1.093-.13-.464-.196-.79-.316-1.281-.085-.348-.236-1.06-.277-1.46-.056-.546-.087-1.438.264-1.848.276-.321.906-.418 1.297-.22.513.259.803 1.003.936 1.3.24.534.387 1.15.517 1.96.164 1.032.466 2.463.476 2.764.024-.37-.069-1.146-.005-1.5.059-.321.329-.694.667-.795.286-.085.62-.116.916-.055.313.064.643.288.766.499.362.624.369 1.899.383 1.83.086-.375.072-1.228.284-1.583.14-.234.498-.445.688-.48.293-.051.655-.067.963-.007.25.049.587.345.678.487.217.344.341 1.317.379 1.658.014.14.074-.392.293-.736.405-.64 1.843-.763 1.898.639.024.654.02.624.02 1.064 0 .517-.012.828-.04 1.202-.032.4-.117 1.304-.242 1.742-.087.3-.372.978-.652 1.384 0 0-1.075 1.25-1.192 1.813-.117.562-.079.566-.101.965-.024.398.12.922.12.922s-.802.104-1.234.035c-.39-.063-.875-.841-1-1.08-.171-.327-.539-.264-.681-.022-.226.383-.71 1.07-1.051 1.113-.668.084-2.054.03-3.14.02 0 0 .186-1.011-.226-1.358-.305-.26-.83-.784-1.144-1.06l-.832-.921z"/>
        <filter id="e" width="126.2%" height="124.6%" x="-13.1%" y="-7.4%" filterUnits="objectBoundingBox">
            <feOffset dy=".75" in="SourceAlpha" result="shadowOffsetOuter1"/>
            <feGaussianBlur in="shadowOffsetOuter1" result="shadowBlurOuter1" stdDeviation=".5"/>
            <feColorMatrix in="shadowBlurOuter1" values="0 0 0 0 0 0 0 0 0 0 0 0 0 0 0 0 0 0 0.2 0"/>
        </filter>
    </defs>
    <g fill="none" fill-rule="evenodd">
        <rect width="1120" height="146" fill="#D8D8D8" opacity=".34" rx="2"/>
        <path fill="#FFF" d="M33 39h1050a4 4 0 0 1 4 4v62a4 4 0 0 1-4 4H33a4 4 0 0 1-4-4V43a4 4 0 0 1 4-4z"/>
        <path d="M1022 55h24v24h-24z"/>
        <path fill="#34495E" fill-rule="nonzero" d="M1025 72.46v3.04c0 .28.22.5.5.5h3.04c.13 0 .26-.05.35-.15l10.92-10.91-3.75-3.75-10.91 10.91c-.1.1-.15.22-.15.36zm17.71-10.42a.996.996 0 0 0 0-1.41l-2.34-2.34a.996.996 0 0 0-1.41 0l-1.83 1.83 3.75 3.75 1.83-1.83z"/>
        <text fill="#34495E" font-family="HelveticaNeue-Bold, Helvetica Neue" font-size="14" font-weight="bold" transform="translate(29 39)">
            <tspan x="232" y="27">Ordered as</tspan>
        </text>
        <text fill="#2A292A" font-family="HelveticaNeue-Bold, Helvetica Neue" font-size="18" font-weight="bold" transform="translate(29 39)">
            <tspan x="232" y="51">1</tspan>
        </text>
        <text fill="#2A292A" font-family="HelveticaNeue-Bold, Helvetica Neue" font-size="16" font-weight="bold" transform="translate(29 39)">
            <tspan x="23" y="33">Quantity</tspan>
        </text>
        <g>
            <g transform="translate(1022 80)">
                <mask id="b" fill="#fff">
                    <use xlink:href="#a"/>
                </mask>
                <g fill="#000" mask="url(#b)">
                    <use filter="url(#c)" xlink:href="#d"/>
                </g>
                <g fill="#000" mask="url(#b)">
                    <use filter="url(#e)" xlink:href="#f"/>
                </g>
                <path fill="#000" d="M14.724 7.471c.32-.289.797-.434 1.242-.366.657.102 1.103.628 1.135 1.442a21.874 21.874 0 0 1 .02.916v.162c0 .507-.01.83-.04 1.23-.055.708-.145 1.427-.256 1.817a6.172 6.172 0 0 1-.728 1.525 12.784 12.784 0 0 0-.769 1.005c-.192.288-.314.52-.34.641-.058.28-.076.407-.082.542l-.002.088a6.56 6.56 0 0 1-.01.28c-.003.056-.002.12.003.192a3.474 3.474 0 0 0 .105.608l.114.416-.427.056a7.821 7.821 0 0 1-.791.06 3.131 3.131 0 0 1-.551-.027c-.48-.077-.956-.673-1.273-1.275-.43.682-.9 1.23-1.354 1.288-.425.053-1.018.059-2.178.039l-.214-.004c-.427-.007-.588-.01-.797-.012l-.446-.005.08-.438a2.447 2.447 0 0 0 .026-.631c-.019-.194-.068-.324-.126-.373a15.08 15.08 0 0 1-.597-.55c-.329-.312-.432-.41-.583-.545l-.832-.92c-.16-.2-.949-1.552-1.273-2.023-.12-.174-.175-.243-.68-.865l-.05-.062c-.411-.508-.631-.803-.762-1.047-.236-.452-.261-.688-.184-1.2.125-.834.955-1.453 1.83-1.368.534.05.923.28 1.558.798.087.071.178.16.278.268a6.238 6.238 0 0 1 .227.26 23.157 23.157 0 0 0-.162-.829 15.797 15.797 0 0 0-.143-.596l-.015-.054a93 93 0 0 0-.119-.425c-.054-.194-.1-.372-.151-.588l-.023-.097c-.067-.285-.103-.439-.145-.608a14.005 14.005 0 0 1-.284-1.508c-.097-.93-.033-1.682.352-2.132.387-.453 1.205-.587 1.75-.31.315.158.565.438.784.812.07.12.135.247.2.386.037.08.14.314.126.283.242.54.401 1.16.544 2.055.026.162.056.34.092.543.157-.175.354-.311.569-.376.36-.107.754-.134 1.098-.062.406.083.832.364 1.015.678.028.049.055.1.08.156.208-.275.595-.517.885-.57a3.137 3.137 0 0 1 1.102-.006c.327.064.755.395.921.654.101.16.183.391.251.672z" mask="url(#b)"/>
                <path fill="#FFF" stroke="#000" stroke-width=".75" d="M5.332 14.38c-.284-.36-.63-1.093-1.244-1.984-.348-.504-1.21-1.453-1.468-1.935-.223-.426-.199-.617-.146-.97.094-.628.738-1.117 1.425-1.051.52.049.96.392 1.356.716.239.195.532.574.71.788.163.196.203.277.377.509.23.307.302.459.214.12-.072-.495-.188-1.342-.356-2.091-.128-.568-.159-.657-.28-1.093-.13-.464-.196-.79-.316-1.281-.085-.348-.236-1.06-.277-1.46-.056-.546-.087-1.438.264-1.848.276-.321.906-.418 1.297-.22.513.259.803 1.003.936 1.3.24.534.387 1.15.517 1.96.164 1.032.466 2.463.476 2.764.01.3-.069-1.146-.005-1.5.059-.321.329-.694.667-.795.286-.085.62-.116.916-.055.313.064.643.288.766.499.362.624.369 1.899.383 1.83.086-.375.072-1.228.284-1.583.14-.234.498-.445.688-.48.293-.051.655-.067.963-.007.25.049.587.345.678.487.217.344.341 1.317.379 1.658.014.14.074-.392.293-.736.405-.64 1.843-.763 1.898.639.024.654.02.624.02 1.064 0 .517-.012.828-.04 1.202-.032.4-.117 1.304-.242 1.742-.087.3-.372.978-.652 1.384 0 0-1.075 1.25-1.192 1.813-.117.562-.079.566-.101.965-.024.398.12.922.12.922s-.802.104-1.234.035c-.39-.063-.875-.841-1-1.08-.171-.327-.539-.264-.681-.022-.226.383-.71 1.07-1.051 1.113-.668.084-2.054.03-3.14.02 0 0 .186-1.011-.226-1.358-.305-.26-.83-.784-1.144-1.06l-.832-.921z" mask="url(#b)"/>
                <path stroke="#000" stroke-linecap="round" stroke-width=".75" d="M13.566 14.75v-3.5M11.55 14.746l-.015-3.5M9.555 14.75l.021-3.5" mask="url(#b)"/>
            </g>
        </g>
        <g>
            <path fill="#3D3D3D" d="M1026 107l6-6 6 6h17a4 4 0 0 1 4 4v24a4 4 0 0 1-4 4h-45a4 4 0 0 1-4-4v-24a4 4 0 0 1 4-4h16z"/>
            <text fill="#FFF" font-family="HelveticaNeue, Helvetica Neue" font-size="14" transform="translate(1006 101)">
                <tspan x="13" y="26">Edit</tspan>
            </text>
        </g>
    </g>
</svg>
