<svg xmlns="http://www.w3.org/2000/svg" width="24" height="24" viewBox="0 0 24 24">
    <g fill="none" fill-rule="evenodd">
        <path fill="#FFF" d="M0 0h24v24H0z"/>
        <path d="M0 0h24v24H0z"/>
        <path fill="#000" d="M17.455 8.91h-1.819V7.454c0-.8-.654-1.455-1.454-1.455H5.455C4.655 6 4 6.655 4 7.455V14c0 .8.655 1.455 1.455 1.455 0 1.207.974 2.181 2.181 2.181a2.179 2.179 0 0 0 2.182-2.181h4.364c0 1.207.974 2.181 2.182 2.181a2.179 2.179 0 0 0 2.181-2.181h.728a.73.73 0 0 0 .727-.728v-2.422c0-.312-.102-.618-.29-.872L18.035 9.2a.737.737 0 0 0-.581-.29zm-9.819 7.272a.73.73 0 0 1-.727-.727c0-.4.327-.728.727-.728.4 0 .728.328.728.728a.73.73 0 0 1-.728.727zM17.455 10l1.425 1.818h-3.244V10h1.819zm-1.091 6.182a.73.73 0 0 1-.728-.727c0-.4.328-.728.728-.728.4 0 .727.328.727.728a.73.73 0 0 1-.727.727z"/>
    </g>
</svg>
