<svg xmlns="http://www.w3.org/2000/svg" width="746" height="362" viewBox="0 0 746 362">
    <g fill="none" fill-rule="evenodd">
        <path fill="#FFF" stroke="#DADCE0" d="M13 270h720a4 4 0 0 1 4 4v72a4 4 0 0 1-4 4H13a4 4 0 0 1-4-4v-72a4 4 0 0 1 4-4z"/>
        <g fill="#D50000" transform="translate(657 289)">
            <rect width="50" height="20" fill-opacity=".2" rx="10"/>
            <text font-family="HelveticaNeue-Bold, Helvetica Neue" font-size="12" font-weight="bold">
                <tspan x="9" y="14">ALERT</tspan>
            </text>
        </g>
        <text fill="#2D3348" font-family="HelveticaNeue, Helvetica Neue" font-size="14" transform="translate(9 270)">
            <tspan x="483" y="51">111 Bentley DR</tspan>
        </text>
        <text fill="#2D3348" font-family="HelveticaNeue, Helvetica Neue" font-size="14" transform="translate(9 270)">
            <tspan x="483" y="29">Knight Tony</tspan>
        </text>
        <text fill="#2D3348" font-family="HelveticaNeue, Helvetica Neue" font-size="14" transform="translate(9 270)">
            <tspan x="337" y="51">0742</tspan>
        </text>
        <text fill="#2D3348" font-family="HelveticaNeue, Helvetica Neue" font-size="14" transform="translate(9 270)">
            <tspan x="290" y="52">Store #</tspan>
        </text>
        <text fill="#212931" font-family="HelveticaNeue-Bold, Helvetica Neue" font-size="14" font-weight="bold" transform="translate(9 270)">
            <tspan x="50" y="30">Garage Door Install</tspan>
        </text>
        <text fill="#212931" font-family="HelveticaNeue-Bold, Helvetica Neue" font-size="14" font-weight="bold" transform="translate(9 270)">
            <tspan x="320" y="30">42441792</tspan>
        </text>
        <text fill="#212931" font-family="HelveticaNeue-Bold, Helvetica Neue" font-size="14" font-weight="bold" transform="translate(9 270)">
            <tspan x="290" y="30">PO#</tspan>
        </text>
        <text fill="#2D3348" font-family="HelveticaNeue, Helvetica Neue" font-size="14" transform="translate(59 309)">
            <tspan x="0" y="13">At DC Ready for Pickup/Delivery</tspan>
        </text>
        <g fill="#2A292A" fill-rule="nonzero" transform="translate(41 292)">
            <path d="M2.88 9.12h6.24v1H2.88zM2.88 6.24h6.24v1H2.88zM2.88 7.68h6.24v1H2.88zM2.88 10.56h6.24V12H2.88z"/>
            <path d="M11.76 11.52h-.72V3.888l.587.392a.239.239 0 0 0 .333-.067.24.24 0 0 0-.067-.333L6.133.04a.24.24 0 0 0-.266 0L.107 3.88a.24.24 0 0 0 .266.4l.587-.392v7.632H.24a.24.24 0 1 0 0 .48H2.4V6a.24.24 0 0 1 .24-.24h6.72A.24.24 0 0 1 9.6 6v6h2.16a.24.24 0 1 0 0-.48zM6 4.8c-.662 0-1.2-.538-1.2-1.2 0-.662.538-1.2 1.2-1.2.662 0 1.2.538 1.2 1.2 0 .662-.538 1.2-1.2 1.2z"/>
            <circle cx="6" cy="3.6" r="1"/>
        </g>
        <g>
            <path fill="#FFF" stroke="#DADCE0" d="M13 182h720a4 4 0 0 1 4 4v72a4 4 0 0 1-4 4H13a4 4 0 0 1-4-4v-72a4 4 0 0 1 4-4z"/>
            <text fill="#2D3348" font-family="HelveticaNeue, Helvetica Neue" font-size="14" transform="translate(9 182)">
                <tspan x="483" y="51">9521 Thornberry Dr</tspan>
            </text>
            <text fill="#2D3348" font-family="HelveticaNeue, Helvetica Neue" font-size="14" transform="translate(9 182)">
                <tspan x="483" y="29">King Russell</tspan>
            </text>
            <text fill="#2D3348" font-family="HelveticaNeue, Helvetica Neue" font-size="14" transform="translate(9 182)">
                <tspan x="337" y="51">0742</tspan>
            </text>
            <text fill="#2D3348" font-family="HelveticaNeue, Helvetica Neue" font-size="14" transform="translate(9 182)">
                <tspan x="290" y="52">Store #</tspan>
            </text>
            <text fill="#212931" font-family="HelveticaNeue-Bold, Helvetica Neue" font-size="14" font-weight="bold" transform="translate(9 182)">
                <tspan x="50" y="30">Garage Door Install</tspan>
            </text>
            <text fill="#212931" font-family="HelveticaNeue-Bold, Helvetica Neue" font-size="14" font-weight="bold" transform="translate(9 182)">
                <tspan x="320" y="30">42440344</tspan>
            </text>
            <text fill="#212931" font-family="HelveticaNeue-Bold, Helvetica Neue" font-size="14" font-weight="bold" transform="translate(9 182)">
                <tspan x="290" y="30">PO#</tspan>
            </text>
            <text fill="#2D3348" font-family="HelveticaNeue, Helvetica Neue" font-size="14" transform="translate(59 221)">
                <tspan x="0" y="13">At DC Ready for Pickup/Delivery</tspan>
            </text>
            <g fill="#2A292A" fill-rule="nonzero" transform="translate(41 204)">
                <path d="M2.88 9.12h6.24v1H2.88zM2.88 6.24h6.24v1H2.88zM2.88 7.68h6.24v1H2.88zM2.88 10.56h6.24V12H2.88z"/>
                <path d="M11.76 11.52h-.72V3.888l.587.392a.239.239 0 0 0 .333-.067.24.24 0 0 0-.067-.333L6.133.04a.24.24 0 0 0-.266 0L.107 3.88a.24.24 0 0 0 .266.4l.587-.392v7.632H.24a.24.24 0 1 0 0 .48H2.4V6a.24.24 0 0 1 .24-.24h6.72A.24.24 0 0 1 9.6 6v6h2.16a.24.24 0 1 0 0-.48zM6 4.8c-.662 0-1.2-.538-1.2-1.2 0-.662.538-1.2 1.2-1.2.662 0 1.2.538 1.2 1.2 0 .662-.538 1.2-1.2 1.2z"/>
                <circle cx="6" cy="3.6" r="1"/>
            </g>
        </g>
        <g>
            <path fill="#FFF" stroke="#DADCE0" d="M13 94h720a4 4 0 0 1 4 4v72a4 4 0 0 1-4 4H13a4 4 0 0 1-4-4V98a4 4 0 0 1 4-4z"/>
            <text fill="#2D3348" font-family="HelveticaNeue, Helvetica Neue" font-size="14" transform="translate(9 94)">
                <tspan x="483" y="51">422 Arbor Woods Circle</tspan>
            </text>
            <text fill="#2D3348" font-family="HelveticaNeue, Helvetica Neue" font-size="14" transform="translate(9 94)">
                <tspan x="483" y="29">Kelley Kenneth</tspan>
            </text>
            <text fill="#2D3348" font-family="HelveticaNeue, Helvetica Neue" font-size="14" transform="translate(9 94)">
                <tspan x="337" y="51">0742</tspan>
            </text>
            <text fill="#2D3348" font-family="HelveticaNeue, Helvetica Neue" font-size="14" transform="translate(9 94)">
                <tspan x="290" y="52">Store #</tspan>
            </text>
            <text fill="#212931" font-family="HelveticaNeue-Bold, Helvetica Neue" font-size="14" font-weight="bold" transform="translate(9 94)">
                <tspan x="50" y="30">Service</tspan>
            </text>
            <text fill="#212931" font-family="HelveticaNeue-Bold, Helvetica Neue" font-size="14" font-weight="bold" transform="translate(9 94)">
                <tspan x="320" y="30">RP42439305</tspan>
            </text>
            <text fill="#212931" font-family="HelveticaNeue-Bold, Helvetica Neue" font-size="14" font-weight="bold" transform="translate(9 94)">
                <tspan x="290" y="30">PO#</tspan>
            </text>
            <text fill="#2D3348" font-family="HelveticaNeue, Helvetica Neue" font-size="14" transform="translate(59 133)">
                <tspan x="0" y="13">At DC Ready for Pickup/Delivery</tspan>
            </text>
            <g fill="#2A292A" fill-rule="nonzero" transform="translate(41 116)">
                <path d="M2.88 9.12h6.24v1H2.88zM2.88 6.24h6.24v1H2.88zM2.88 7.68h6.24v1H2.88zM2.88 10.56h6.24V12H2.88z"/>
                <path d="M11.76 11.52h-.72V3.888l.587.392a.239.239 0 0 0 .333-.067.24.24 0 0 0-.067-.333L6.133.04a.24.24 0 0 0-.266 0L.107 3.88a.24.24 0 0 0 .266.4l.587-.392v7.632H.24a.24.24 0 1 0 0 .48H2.4V6a.24.24 0 0 1 .24-.24h6.72A.24.24 0 0 1 9.6 6v6h2.16a.24.24 0 1 0 0-.48zM6 4.8c-.662 0-1.2-.538-1.2-1.2 0-.662.538-1.2 1.2-1.2.662 0 1.2.538 1.2 1.2 0 .662-.538 1.2-1.2 1.2z"/>
                <circle cx="6" cy="3.6" r="1"/>
            </g>
        </g>
        <g>
            <path fill="#FFF" stroke="#DADCE0" d="M13 6h720a4 4 0 0 1 4 4v72a4 4 0 0 1-4 4H13a4 4 0 0 1-4-4V10a4 4 0 0 1 4-4z"/>
            <g transform="translate(667 25)">
                <rect width="40" height="20" fill="#FACA30" fill-opacity=".2" rx="10"/>
                <text fill="#E67E22" font-family="HelveticaNeue-Bold, Helvetica Neue" font-size="12" font-weight="bold">
                    <tspan x="8" y="14">NEW</tspan>
                </text>
            </g>
            <text fill="#2D3348" font-family="HelveticaNeue, Helvetica Neue" font-size="14" transform="translate(9 6)">
                <tspan x="483" y="51">2418 East 14th Street</tspan>
            </text>
            <text fill="#2D3348" font-family="HelveticaNeue, Helvetica Neue" font-size="14" transform="translate(9 6)">
                <tspan x="483" y="29">Keith A Flinchum</tspan>
            </text>
            <text fill="#2D3348" font-family="HelveticaNeue, Helvetica Neue" font-size="14" transform="translate(9 6)">
                <tspan x="337" y="51">0742</tspan>
            </text>
            <text fill="#2D3348" font-family="HelveticaNeue, Helvetica Neue" font-size="14" transform="translate(9 6)">
                <tspan x="290" y="52">Store #</tspan>
            </text>
            <text fill="#212931" font-family="HelveticaNeue-Bold, Helvetica Neue" font-size="14" font-weight="bold" transform="translate(9 6)">
                <tspan x="50" y="30">Do-It-Yourself Garage Door ..</tspan>
            </text>
            <text fill="#212931" font-family="HelveticaNeue-Bold, Helvetica Neue" font-size="14" font-weight="bold" transform="translate(9 6)">
                <tspan x="320" y="30">42521983</tspan>
            </text>
            <text fill="#212931" font-family="HelveticaNeue-Bold, Helvetica Neue" font-size="14" font-weight="bold" transform="translate(9 6)">
                <tspan x="290" y="30">PO#</tspan>
            </text>
            <text fill="#2D3348" font-family="HelveticaNeue, Helvetica Neue" font-size="14" transform="translate(59 45)">
                <tspan x="0" y="13">At DC Ready for Pickup/Delivery</tspan>
            </text>
            <g fill="#2A292A" fill-rule="nonzero" transform="translate(41 28)">
                <path d="M2.88 9.12h6.24v1H2.88zM2.88 6.24h6.24v1H2.88zM2.88 7.68h6.24v1H2.88zM2.88 10.56h6.24V12H2.88z"/>
                <path d="M11.76 11.52h-.72V3.888l.587.392a.239.239 0 0 0 .333-.067.24.24 0 0 0-.067-.333L6.133.04a.24.24 0 0 0-.266 0L.107 3.88a.24.24 0 0 0 .266.4l.587-.392v7.632H.24a.24.24 0 1 0 0 .48H2.4V6a.24.24 0 0 1 .24-.24h6.72A.24.24 0 0 1 9.6 6v6h2.16a.24.24 0 1 0 0-.48zM6 4.8c-.662 0-1.2-.538-1.2-1.2 0-.662.538-1.2 1.2-1.2.662 0 1.2.538 1.2 1.2 0 .662-.538 1.2-1.2 1.2z"/>
                <circle cx="6" cy="3.6" r="1"/>
            </g>
        </g>
    </g>
</svg>
